<?xml version="1.0" encoding="utf-8"?>
<COLLADA xmlns="http://www.collada.org/2005/11/COLLADASchema" version="1.4.1">
  <asset>
    <contributor>
      <author>Blender User</author>
      <authoring_tool>Blender 2.71.0 commit date:2014-06-25, commit time:18:36, hash:9337574</authoring_tool>
    </contributor>
    <created>2015-08-06T14:32:37</created>
    <modified>2015-08-06T14:32:37</modified>
    <unit name="meter" meter="1"/>
    <up_axis>Z_UP</up_axis>
  </asset>
  <library_images/>
  <library_geometries>
    <geometry id="Plane-mesh" name="Plane">
      <mesh>
        <source id="Plane-mesh-positions">
          <float_array id="Plane-mesh-positions-array" count="105">0.1232609 -0.08955442 0.2035489 0.1007296 -0.07318443 0.08622843 0.04955077 -0.03600078 0.005603313 0.09951615 -0.07230281 0.3096763 0.05633771 -0.04093176 0.3813952 0.03091597 -0.02246177 0.4526995 0.03847521 -0.1184148 0.08622843 0.01892668 -0.05825048 0.005603313 -0.03847533 -0.1184148 0.08622843 -0.01892673 -0.05825042 0.005603313 -0.1007297 -0.07318425 0.08622843 -0.04955083 -0.03600066 0.005603313 -0.1245086 1.60187e-7 0.08622843 -0.06124812 0 0.005603313 -0.1007295 0.07318449 0.08622843 -0.04955071 0.03600084 0.005603313 0 0 0.003316462 -0.04708123 0.1449021 0.2035489 -0.03847503 0.1184148 0.08622843 -0.01892656 0.05825048 0.005603313 0.04708182 0.1449019 0.2035489 0.03847551 0.1184147 0.08622843 0.01892685 0.05825042 0.005603313 0.03801202 0.1169882 0.3096763 0.1232612 0.08955401 0.2035489 0.1007298 0.07318407 0.08622843 0.04955089 0.0360006 0.005603313 0.09951633 0.07230246 0.3096763 0.05633777 0.04093158 0.3813952 0.152359 -3.72529e-7 0.2035489 0.1245087 -3.00817e-7 0.08622843 0.06124818 -1.55531e-7 0.005603313 0.1230088 -2.90573e-7 0.3096763 0.06963723 -1.53203e-7 0.3813952 0.03821426 0 0.4526995</float_array>
          <technique_common>
            <accessor source="#Plane-mesh-positions-array" count="35" stride="3">
              <param name="X" type="float"/>
              <param name="Y" type="float"/>
              <param name="Z" type="float"/>
            </accessor>
          </technique_common>
        </source>
        <source id="Plane-mesh-normals">
          <float_array id="Plane-mesh-normals-array" count="105">0.417188 -0.3031098 -0.8567461 0.7721488 -0.4144414 -0.4816126 0.4710532 -0.6483657 -0.5980407 -0.2220832 -0.3183996 -0.9215674 -0.4710532 -0.6483657 -0.5980407 -0.6364635 -0.4624165 -0.6172674 -0.417188 -0.3031098 -0.8567461 -0.7621998 -0.2476577 -0.5980407 -0.234199 0.3096103 -0.9215674 -0.4710532 0.6483657 -0.5980407 -0.1555528 0.8624531 -0.4816126 0 0.9754326 -0.2202215 0.4076357 0.9106418 -0.0673238 0.2806482 0.8637654 -0.4184393 -0.1593371 0.4904325 -0.8567461 0.8088931 0.5876644 0.01751762 0.7347636 0.5338298 -0.4184393 0.5684378 0.7824031 0.2543413 0.7953429 0.480697 0.3691824 0.1593371 0.4904325 -0.8567461 0.7762688 0.252205 0.5776849 0.8361156 -0.08621478 0.541673 0.9920347 0.106296 -0.0673238 0.9082003 0 -0.4184393 0.8699911 0.117069 0.478927 0.5156713 0 -0.8567461 0.877102 -0.2849819 0.3865169 0.877102 -0.2849819 0.3865169 0.8267159 -0.2685934 0.4943083 0 0 -1 0.9277017 -0.3014313 -0.2202215 0.2220832 -0.3183996 -0.9215674 -0.3714408 -0.1127964 -0.9215674 0.417188 0.3031098 -0.8567461 0.7762688 -0.252205 0.5776849</float_array>
          <technique_common>
            <accessor source="#Plane-mesh-normals-array" count="35" stride="3">
              <param name="X" type="float"/>
              <param name="Y" type="float"/>
              <param name="Z" type="float"/>
            </accessor>
          </technique_common>
        </source>
        <vertices id="Plane-mesh-vertices">
          <input semantic="POSITION" source="#Plane-mesh-positions"/>
        </vertices>
        <polylist count="44">
          <input semantic="VERTEX" source="#Plane-mesh-vertices" offset="0"/>
          <input semantic="NORMAL" source="#Plane-mesh-normals" offset="1"/>
          <vcount>3 3 3 3 3 3 3 3 3 3 3 3 3 3 3 3 3 3 3 3 3 3 3 3 3 3 3 3 3 3 3 3 3 3 3 3 3 3 3 3 3 3 3 3 </vcount>
          <p>2 0 1 1 6 2 9 3 8 4 10 5 11 6 10 5 12 7 15 8 14 9 18 10 17 11 20 12 21 13 19 14 18 10 21 13 20 12 24 15 25 16 20 12 23 17 27 18 22 19 21 13 25 16 27 18 28 20 33 21 24 15 29 22 30 23 24 15 27 18 32 24 25 16 30 23 31 25 33 21 34 26 5 27 32 24 33 21 4 28 16 29 31 25 2 0 30 23 29 22 0 30 31 25 30 23 1 1 16 29 2 0 7 31 16 29 7 31 9 3 16 29 9 3 11 6 16 29 11 6 13 32 16 29 13 32 15 8 16 29 15 8 19 14 16 29 19 14 22 19 16 29 22 19 26 33 16 29 26 33 31 25 7 31 2 0 6 2 11 6 9 3 10 5 13 32 11 6 12 7 19 14 15 8 18 10 18 10 17 11 21 13 22 19 19 14 21 13 21 13 20 12 25 16 24 15 20 12 27 18 26 33 22 19 25 16 32 24 27 18 33 21 25 16 24 15 30 23 29 22 24 15 32 24 26 33 25 16 31 25 4 28 33 21 5 27 3 34 32 24 4 28 1 1 30 23 0 30 2 0 31 25 1 1</p>
        </polylist>
      </mesh>
    </geometry>
    <geometry id="Plane_001-mesh" name="Plane.001">
      <mesh>
        <source id="Plane_001-mesh-positions">
          <float_array id="Plane_001-mesh-positions-array" count="72">0.1232609 -0.08955442 0.2035489 0.1007296 -0.07318443 0.08622843 0.09951615 -0.07230281 0.3096763 0.05633771 -0.04093176 0.3813952 0.04708141 -0.144902 0.2035489 0.03847521 -0.1184148 0.08622843 0.01892668 -0.05825048 0.005603313 0.03801172 -0.1169883 0.3096763 0.02151906 -0.06622892 0.3813952 0.01180887 -0.03634393 0.4526995 -0.04708158 -0.1449019 0.2035489 -0.03847533 -0.1184148 0.08622843 -0.01892673 -0.05825042 0.005603313 -0.03801184 -0.1169883 0.3096763 -0.02151912 -0.06622892 0.3813952 -0.01180881 -0.03634393 0.4526995 -0.123261 -0.08955419 0.2035489 -0.1007297 -0.07318425 0.08622843 -0.09951627 -0.07230263 0.3096763 -0.05633771 -0.0409317 0.3813952 -0.152359 2.03028e-7 0.2035489 -0.1230087 1.4808e-7 0.3096763 0.152359 -3.72529e-7 0.2035489 0.1230088 -2.90573e-7 0.3096763</float_array>
          <technique_common>
            <accessor source="#Plane_001-mesh-positions-array" count="24" stride="3">
              <param name="X" type="float"/>
              <param name="Y" type="float"/>
              <param name="Z" type="float"/>
            </accessor>
          </technique_common>
        </source>
        <source id="Plane_001-mesh-normals">
          <float_array id="Plane_001-mesh-normals-array" count="72">0.4797509 -0.660329 0.5776849 0.1763359 -0.8218635 0.541673 0.2796106 -0.860622 0.4255501 0.5733513 -0.7891476 -0.2202215 0.7363506 -0.6687826 0.102237 0.3089389 -0.9508957 0.01751762 0.7029328 -0.6078677 0.3691824 0 -0.9222694 0.3865169 0 -0.9222694 0.3865169 -0.1763359 -0.8218635 0.541673 -0.3089694 -0.9508957 0.01751762 -0.2142704 -0.911008 -0.3522751 -0.2796106 -0.860622 0.4255501 0 -0.8014466 -0.5980407 0.2142704 -0.911008 -0.3522751 -0.4797509 -0.660329 0.5776849 -0.7363506 -0.6687826 0.102237 -0.5733513 -0.7891476 -0.2202215 -0.7029634 -0.6078677 0.3691824 -0.9197669 -0.2988373 0.2543413 0.9197669 -0.2988373 0.2543413 0.9197669 -0.2988373 0.2543413 0 -0.8014466 -0.5980407 -0.9197669 -0.2988373 0.2543413</float_array>
          <technique_common>
            <accessor source="#Plane_001-mesh-normals-array" count="24" stride="3">
              <param name="X" type="float"/>
              <param name="Y" type="float"/>
              <param name="Z" type="float"/>
            </accessor>
          </technique_common>
        </source>
        <vertices id="Plane_001-mesh-vertices">
          <input semantic="POSITION" source="#Plane_001-mesh-positions"/>
        </vertices>
        <polylist count="26">
          <input semantic="VERTEX" source="#Plane_001-mesh-vertices" offset="0"/>
          <input semantic="NORMAL" source="#Plane_001-mesh-normals" offset="1"/>
          <vcount>3 3 3 3 3 3 3 3 3 3 3 3 3 3 3 3 3 3 3 3 3 3 3 3 3 3 </vcount>
          <p>3 0 8 1 7 2 1 3 0 4 4 5 0 4 2 6 7 2 8 1 9 7 15 8 7 2 8 1 14 9 4 5 10 10 11 11 4 5 7 2 13 12 6 13 5 14 11 11 13 12 14 9 19 15 10 10 16 16 17 17 10 10 13 12 18 18 16 16 18 18 21 19 22 20 23 21 2 6 2 6 3 0 7 2 5 14 1 3 4 5 4 5 0 4 7 2 14 9 8 1 15 8 13 12 7 2 14 9 5 14 4 5 11 11 10 10 4 5 13 12 12 22 6 13 11 11 18 18 13 12 19 15 11 11 10 10 17 17 16 16 10 10 18 18 20 23 16 16 21 19 0 4 22 20 2 6</p>
        </polylist>
      </mesh>
    </geometry>
    <geometry id="Plane_002-mesh" name="Plane.002">
      <mesh>
        <source id="Plane_002-mesh-positions">
          <float_array id="Plane_002-mesh-positions-array" count="294">0.05633771 -0.04093176 0.3813952 0.03091597 -0.02246177 0.4526995 0.03966629 -0.0288192 0.5476337 0.05830109 -0.04235821 0.6060632 0.05899083 -0.04285931 0.6305614 0.04503476 -0.03271961 0.6316407 0.03663563 -0.02661728 0.6086131 0.02553802 -0.01855444 0.5643569 0.02151906 -0.06622892 0.3813952 0.01180887 -0.03634393 0.4526995 0.01515114 -0.0466305 0.5476337 0.02226901 -0.06853705 0.6060632 0.02253252 -0.06934791 0.6305614 0.01720178 -0.0529415 0.6316407 0.01399356 -0.04306775 0.6086131 0.009754657 -0.03002172 0.5643569 -0.02151912 -0.06622892 0.3813952 -0.01180881 -0.03634393 0.4526995 -0.01515114 -0.0466305 0.5476337 -0.02226901 -0.06853705 0.6060632 -0.02253246 -0.06934791 0.6305614 -0.01720172 -0.0529415 0.6316407 -0.0139935 -0.04306775 0.6086131 -0.009754598 -0.03002178 0.5643569 -0.123261 -0.08955419 0.2035489 -0.1007297 -0.07318425 0.08622843 -0.09951627 -0.07230263 0.3096763 -0.05633771 -0.0409317 0.3813952 -0.03091597 -0.02246177 0.4526995 -0.03966623 -0.0288192 0.5476337 -0.05830109 -0.04235816 0.6060632 -0.05899083 -0.04285931 0.6305614 -0.04503476 -0.03271967 0.6316407 -0.03663563 -0.02661734 0.6086131 -0.02553802 -0.01855444 0.5643569 -0.152359 2.03028e-7 0.2035489 -0.1245086 1.60187e-7 0.08622843 -0.06124812 0 0.005603313 -0.1230087 1.4808e-7 0.3096763 -0.06963723 0 0.3813952 -0.03821426 0 0.4526995 -0.04903018 0 0.5476337 -0.0720641 0 0.6060632 -0.07291668 0 0.6305614 -0.05566602 0 0.6316407 -0.04528409 0 0.6086131 -0.03156673 0 0.5643569 -0.1232608 0.08955454 0.2035489 -0.1007295 0.07318449 0.08622843 -0.04955071 0.03600084 0.005603313 -0.09951609 0.07230287 0.3096763 -0.05633765 0.04093182 0.3813952 -0.03091597 0.02246177 0.4526995 -0.03966623 0.02881926 0.5476337 -0.05830103 0.04235827 0.6060632 -0.05899077 0.04285937 0.6305614 -0.0450347 0.03271967 0.6316407 -0.03663557 0.02661734 0.6086131 -0.02553802 0.01855444 0.5643569 0 0 0.5411494 -0.04708123 0.1449021 0.2035489 -0.03847503 0.1184148 0.08622843 -0.03801155 0.1169884 0.3096763 -0.02151894 0.06622898 0.3813952 -0.01180881 0.03634393 0.4526995 -0.01515108 0.0466305 0.5476337 -0.02226895 0.06853705 0.6060632 -0.0225324 0.06934791 0.6305614 -0.01720166 0.05294156 0.6316407 -0.0139935 0.04306775 0.6086131 -0.009754657 0.03002172 0.5643569 0.04708182 0.1449019 0.2035489 0.03801202 0.1169882 0.3096763 0.02151918 0.06622892 0.3813952 0.01180887 0.03634387 0.4526995 0.0151512 0.04663044 0.5476337 0.02226912 0.06853699 0.6060632 0.02253258 0.06934785 0.6305614 0.01720178 0.0529415 0.6316407 0.01399362 0.04306775 0.6086131 0.009754657 0.03002172 0.5643569 0.09951633 0.07230246 0.3096763 0.05633777 0.04093158 0.3813952 0.03091603 0.02246171 0.4526995 0.03966629 0.02881914 0.5476337 0.05830115 0.0423581 0.6060632 0.05899089 0.04285925 0.6305614 0.04503482 0.03271961 0.6316407 0.03663563 0.02661728 0.6086131 0.02553802 0.01855444 0.5643569 0.06963723 -1.53203e-7 0.3813952 0.03821426 0 0.4526995 0.04903018 0 0.5476337 0.07206416 -1.22003e-7 0.6060632 0.07291674 -1.24797e-7 0.6305614 0.05566602 0 0.6316407 0.04528415 0 0.6086131 0.03156673 0 0.5643569</float_array>
          <technique_common>
            <accessor source="#Plane_002-mesh-positions-array" count="98" stride="3">
              <param name="X" type="float"/>
              <param name="Y" type="float"/>
              <param name="Z" type="float"/>
            </accessor>
          </technique_common>
        </source>
        <source id="Plane_002-mesh-normals">
          <float_array id="Plane_002-mesh-normals-array" count="294">-0.674337 0.4899137 0.5524461 -0.2575457 0.7927183 0.5524461 -0.2884914 0.8879055 0.3582568 -0.3423871 0.2487564 0.906003 -0.7553026 0.5487533 0.3582568 0.6408582 -0.4655904 0.6103091 -0.1307718 0.4025086 0.906003 0.244789 -0.75338 0.6103091 0.3029267 -0.9323405 -0.1973326 0.7930845 -0.57622 -0.1973326 0.299295 -0.9212623 -0.248268 0.7402875 -0.6688436 0.0678426 0.7836543 -0.5693534 -0.248268 0.5420698 -0.7461165 0.3865169 0.4073305 -0.9107334 0.0678426 0.2575457 0.7927183 0.5524461 0.2884914 0.8879055 0.3582568 0.1307718 0.4025086 0.906003 -0.244789 -0.75338 0.6103091 -0.3029267 -0.9323405 -0.1973326 -0.299295 -0.9212623 -0.248268 0.674337 0.4899137 0.5524461 0.7553026 0.5487533 0.3582568 0.3423871 0.2487564 0.906003 -0.6408582 -0.4655904 0.6103091 -0.7930845 -0.57622 -0.1973326 -0.7836543 -0.5693534 -0.248268 -0.4073305 -0.9107334 0.0678426 -0.5420698 -0.7461165 0.3865169 -0.798761 -0.58034 0.1584826 0.8335216 0 0.5524461 0.9335917 0 0.3582568 0.4232307 0 0.906003 -0.7921385 0 0.6103091 -0.9803156 0 -0.1973326 -0.9686575 0 -0.248268 -0.7646107 -0.4329355 0.4773705 -0.9873349 0 0.1584826 -0.7762688 -0.252205 0.5776849 -0.858272 0 0.5131688 -0.9277017 -0.3014008 -0.2202215 -0.9920347 0.106296 -0.0673238 -0.9326457 0.07770007 -0.3522751 0.674337 -0.4899137 0.5524461 0.7553026 -0.5487533 0.3582568 0.3423871 -0.2487564 0.906003 -0.6408582 0.4655904 0.6103091 -0.7930845 0.57622 -0.1973326 -0.7836543 0.5693534 -0.248268 -0.798761 0.58034 0.1584826 -0.8699911 0.117069 0.478927 -0.6943572 0.504471 0.5131688 -0.8088626 0.587695 0.01751762 -0.8001953 0.4853053 -0.3522751 -0.732078 0.5318766 0.4255501 -0.7621998 0.2476577 -0.5980407 0.2575457 -0.7927183 0.5524461 0.2884914 -0.8879055 0.3582568 0.1307718 -0.4025086 0.906003 -0.244789 0.75338 0.6103091 -0.3029267 0.9323405 -0.1973326 -0.299295 0.9212623 -0.248268 -0.3050935 0.939024 0.1584826 -0.2652059 0.8162481 0.5131688 -0.4084903 0.9069796 0.102237 -0.5733513 0.7891476 -0.2202215 -0.2796106 0.860622 0.4255501 -0.2575457 -0.7927183 0.5524461 -0.2884914 -0.8879055 0.3582568 -0.1307718 -0.4025086 0.906003 0.244789 0.75338 0.6103091 0.3029267 0.9323405 -0.1973326 0.299295 0.9212623 -0.248268 0.3050935 0.939024 0.1584826 0.2652059 0.8162481 0.5131688 0.157445 0.8635823 0.478927 -0.674337 -0.4899137 0.5524461 -0.7553026 -0.5487533 0.3582568 -0.3423871 -0.2487564 0.906003 0.6408582 0.4655904 0.6103091 0.7930845 0.57622 -0.1973326 0.7836543 0.5693534 -0.248268 0.7987915 0.58034 0.1584826 0.6480301 0.5934019 0.4773705 -0.8335216 0 0.5524461 -0.9335917 0 0.3582568 -0.4232307 0 0.906003 0.7921385 0 0.6103091 0.9803156 0 -0.1973326 0.9686575 0 -0.248268 0.9920347 0.1059603 0.0678426 0 0 1 0.5420698 -0.7461165 0.3865169 -0.9277017 -0.3014008 -0.2202215 -0.7621998 0.2476577 -0.5980407 0 0.967101 0.2543413 0.4797509 0.660329 0.5776849 0.8771325 0.2849819 0.3865169</float_array>
          <technique_common>
            <accessor source="#Plane_002-mesh-normals-array" count="98" stride="3">
              <param name="X" type="float"/>
              <param name="Y" type="float"/>
              <param name="Z" type="float"/>
            </accessor>
          </technique_common>
        </source>
        <vertices id="Plane_002-mesh-vertices">
          <input semantic="POSITION" source="#Plane_002-mesh-positions"/>
        </vertices>
        <polylist count="170">
          <input semantic="VERTEX" source="#Plane_002-mesh-vertices" offset="0"/>
          <input semantic="NORMAL" source="#Plane_002-mesh-normals" offset="1"/>
          <vcount>3 3 3 3 3 3 3 3 3 3 3 3 3 3 3 3 3 3 3 3 3 3 3 3 3 3 3 3 3 3 3 3 3 3 3 3 3 3 3 3 3 3 3 3 3 3 3 3 3 3 3 3 3 3 3 3 3 3 3 3 3 3 3 3 3 3 3 3 3 3 3 3 3 3 3 3 3 3 3 3 3 3 3 3 3 3 3 3 3 3 3 3 3 3 3 3 3 3 3 3 3 3 3 3 3 3 3 3 3 3 3 3 3 3 3 3 3 3 3 3 3 3 3 3 3 3 3 3 3 3 3 3 3 3 3 3 3 3 3 3 3 3 3 3 3 3 3 3 3 3 3 3 3 3 3 3 3 3 3 3 3 3 3 3 3 3 3 3 3 3 </vcount>
          <p>7 0 15 1 14 2 5 3 6 4 14 2 4 5 5 3 13 6 4 5 12 7 11 8 3 9 11 8 10 10 1 11 2 12 10 10 0 13 1 11 9 14 14 2 15 1 23 15 13 6 14 2 22 16 12 7 13 6 21 17 12 7 20 18 19 19 11 8 19 19 18 20 9 14 10 10 18 20 22 16 23 15 34 21 21 17 22 16 33 22 20 18 21 17 32 23 19 19 20 18 31 24 19 19 30 25 29 26 17 27 18 20 29 26 16 28 17 27 28 29 33 22 34 21 46 30 32 23 33 22 45 31 31 24 32 23 44 32 30 25 31 24 43 33 30 25 42 34 41 35 28 29 29 26 41 35 27 36 28 29 40 37 26 38 27 36 39 39 24 40 35 41 36 42 45 31 46 30 58 43 44 32 45 31 57 44 43 33 44 32 56 45 42 34 43 33 55 46 42 34 54 47 53 48 40 37 41 35 53 48 39 39 40 37 52 49 38 50 39 39 51 51 35 41 47 52 48 53 35 41 38 50 50 54 37 55 36 42 48 53 57 44 58 43 70 56 56 45 57 44 69 57 55 46 56 45 68 58 54 47 55 46 67 59 54 47 66 60 65 61 52 49 53 48 65 61 51 51 52 49 64 62 50 54 51 51 63 63 47 52 60 64 61 65 47 52 50 54 62 66 69 57 70 56 80 67 68 58 69 57 79 68 67 59 68 58 78 69 66 60 67 59 77 70 66 60 76 71 75 72 64 62 65 61 75 72 63 63 64 62 74 73 62 66 63 63 73 74 60 64 62 66 72 75 79 68 80 67 89 76 78 69 79 68 88 77 77 70 78 69 87 78 77 70 86 79 85 80 76 71 85 80 84 81 74 73 75 72 84 81 73 74 74 73 83 82 72 75 73 74 82 83 88 77 89 76 97 84 87 78 88 77 96 85 86 79 87 78 95 86 86 79 94 87 93 88 85 80 93 88 92 89 83 82 84 81 92 89 82 83 83 82 91 90 97 84 59 91 7 0 96 85 97 84 7 0 95 86 96 85 6 4 94 87 95 86 5 3 93 88 94 87 4 5 93 88 3 9 2 12 91 90 92 89 2 12 7 0 59 91 15 1 15 1 59 91 23 15 23 15 59 91 34 21 34 21 59 91 46 30 46 30 59 91 58 43 58 43 59 91 70 56 70 56 59 91 80 67 80 67 59 91 89 76 89 76 59 91 97 84 6 4 7 0 14 2 13 6 5 3 14 2 12 7 4 5 13 6 3 9 4 5 11 8 2 12 3 9 10 10 9 14 1 11 10 10 8 92 0 13 9 14 22 16 14 2 23 15 21 17 13 6 22 16 20 18 12 7 21 17 11 8 12 7 19 19 10 10 11 8 18 20 17 27 9 14 18 20 33 22 22 16 34 21 32 23 21 17 33 22 31 24 20 18 32 23 30 25 19 19 31 24 18 20 19 19 29 26 28 29 17 27 29 26 27 36 16 28 28 29 45 31 33 22 46 30 44 32 32 23 45 31 43 33 31 24 44 32 42 34 30 25 43 33 29 26 30 25 41 35 40 37 28 29 41 35 39 39 27 36 40 37 38 50 26 38 39 39 25 93 24 40 36 42 57 44 45 31 58 43 56 45 44 32 57 44 55 46 43 33 56 45 54 47 42 34 55 46 41 35 42 34 53 48 52 49 40 37 53 48 51 51 39 39 52 49 50 54 38 50 51 51 36 42 35 41 48 53 47 52 35 41 50 54 49 94 37 55 48 53 69 57 57 44 70 56 68 58 56 45 69 57 67 59 55 46 68 58 66 60 54 47 67 59 53 48 54 47 65 61 64 62 52 49 65 61 63 63 51 51 64 62 62 66 50 54 63 63 48 53 47 52 61 65 60 64 47 52 62 66 79 68 69 57 80 67 78 69 68 58 79 68 77 70 67 59 78 69 76 71 66 60 77 70 65 61 66 60 75 72 74 73 64 62 75 72 73 74 63 63 74 73 72 75 62 66 73 74 71 95 60 64 72 75 88 77 79 68 89 76 87 78 78 69 88 77 86 79 77 70 87 78 76 71 77 70 85 80 75 72 76 71 84 81 83 82 74 73 84 81 82 83 73 74 83 82 81 96 72 75 82 83 96 85 88 77 97 84 95 86 87 78 96 85 94 87 86 79 95 86 85 80 86 79 93 88 84 81 85 80 92 89 91 90 83 82 92 89 90 97 82 83 91 90 6 4 96 85 7 0 5 3 95 86 6 4 4 5 94 87 5 3 3 9 93 88 4 5 92 89 93 88 2 12 1 11 91 90 2 12</p>
        </polylist>
      </mesh>
    </geometry>
  </library_geometries>
  <library_controllers/>
  <library_visual_scenes>
    <visual_scene id="Scene" name="Scene">
      <node id="Plane" name="Plane" type="NODE">
        <matrix sid="transform">1 0 0 0 0 1 0 0 0 0 1 0 0 0 0 1</matrix>
        <instance_geometry url="#Plane-mesh"/>
      </node>
      <node id="Plane_001" name="Plane_001" type="NODE">
        <matrix sid="transform">1 0 0 0 0 1 0 0 0 0 1 0 0 0 0 1</matrix>
        <instance_geometry url="#Plane_001-mesh"/>
      </node>
      <node id="Plane_002" name="Plane_002" type="NODE">
        <matrix sid="transform">1 0 0 0 0 1 0 0 0 0 1 0 0 0 0 1</matrix>
        <instance_geometry url="#Plane_002-mesh"/>
      </node>
    </visual_scene>
  </library_visual_scenes>
  <scene>
    <instance_visual_scene url="#Scene"/>
  </scene>
</COLLADA>