<?xml version="1.0" encoding="utf-8"?>
<COLLADA xmlns="http://www.collada.org/2005/11/COLLADASchema" version="1.4.1">
  <asset>
    <contributor>
      <author>Blender User</author>
      <authoring_tool>Blender 2.74.0 commit date:2015-03-31, commit time:13:39, hash:000dfc0</authoring_tool>
    </contributor>
    <created>2015-10-13T12:51:17</created>
    <modified>2015-10-13T12:51:17</modified>
    <unit name="meter" meter="1"/>
    <up_axis>Z_UP</up_axis>
  </asset>
  <library_images/>
  <library_geometries>
    <geometry id="Torus-mesh" name="Torus">
      <mesh>
        <source id="Torus-mesh-positions">
          <float_array id="Torus-mesh-positions-array" count="1080">1.710038 0 0 1.517983 0 0.2092324 1.272016 0 0.1293127 1.272016 0 -0.1293127 1.517983 0 -0.2092324 1.688985 0.267509 0 1.499294 0.237465 0.2092324 1.256355 0.1989871 0.1293127 1.256355 0.1989871 -0.1293127 1.499294 0.237465 -0.2092324 1.626343 0.5284307 0 1.443688 0.4690825 0.2092324 1.209759 0.3930744 0.1293127 1.209759 0.3930744 -0.1293127 1.443688 0.4690825 -0.2092324 1.523655 0.776341 0 1.352533 0.68915 0.2092324 1.133374 0.5774831 0.1293127 1.133374 0.5774831 -0.1293127 1.352533 0.68915 -0.2092324 1.38345 1.005135 0 1.228074 0.8922483 0.2092324 1.029082 0.7476722 0.1293127 1.029082 0.7476722 -0.1293127 1.228074 0.8922483 -0.2092324 1.209179 1.20918 0 1.073376 1.073376 0.2092324 0.899451 0.899451 0.1293127 0.899451 0.899451 -0.1293127 1.073376 1.073376 -0.2092324 1.005135 1.38345 0 0.892248 1.228074 0.2092324 0.7476719 1.029083 0.1293127 0.7476719 1.029083 -0.1293127 0.892248 1.228074 -0.2092324 0.7763414 1.523655 0 0.6891503 1.352533 0.2092324 0.5774834 1.133374 0.1293127 0.5774834 1.133374 -0.1293127 0.6891503 1.352533 -0.2092324 0.5284311 1.626343 0 0.469083 1.443688 0.2092324 0.3930748 1.209759 0.1293127 0.3930748 1.209759 -0.1293127 0.469083 1.443688 -0.2092324 0.2675092 1.688985 0 0.2374652 1.499294 0.2092324 0.1989873 1.256355 0.1293127 0.1989873 1.256355 -0.1293127 0.2374652 1.499294 -0.2092324 1.23639e-7 1.710038 0 1.19209e-7 1.517983 0.2092324 1.19209e-7 1.272016 0.1293127 1.19209e-7 1.272016 -0.1293127 1.19209e-7 1.517983 -0.2092324 -0.2675089 1.688985 0 -0.2374648 1.499294 0.2092324 -0.198987 1.256355 0.1293127 -0.198987 1.256355 -0.1293127 -0.2374648 1.499294 -0.2092324 -0.5284309 1.626343 0 -0.4690827 1.443688 0.2092324 -0.3930745 1.209759 0.1293127 -0.3930745 1.209759 -0.1293127 -0.4690827 1.443688 -0.2092324 -0.7763413 1.523655 0 -0.6891502 1.352533 0.2092324 -0.5774833 1.133374 0.1293127 -0.5774833 1.133374 -0.1293127 -0.6891502 1.352533 -0.2092324 -1.005136 1.38345 0 -0.8922485 1.228074 0.2092324 -0.7476723 1.029082 0.1293127 -0.7476723 1.029082 -0.1293127 -0.8922485 1.228074 -0.2092324 -1.20918 1.209179 0 -1.073377 1.073376 0.2092324 -0.8994511 0.8994507 0.1293127 -0.8994511 0.8994507 -0.1293127 -1.073377 1.073376 -0.2092324 -1.38345 1.005135 0 -1.228075 0.8922478 0.2092324 -1.029083 0.7476719 0.1293127 -1.029083 0.7476719 -0.1293127 -1.228075 0.8922478 -0.2092324 -1.523655 0.7763413 0 -1.352533 0.6891502 0.2092324 -1.133374 0.5774832 0.1293127 -1.133374 0.5774832 -0.1293127 -1.352533 0.6891502 -0.2092324 -1.626343 0.5284309 0 -1.443688 0.4690827 0.2092324 -1.209759 0.3930746 0.1293128 -1.209759 0.3930746 -0.1293128 -1.443688 0.4690827 -0.2092324 -1.688985 0.2675089 0 -1.499294 0.2374649 0.2092324 -1.256355 0.198987 0.1293127 -1.256355 0.198987 -0.1293127 -1.499294 0.2374649 -0.2092324 -1.710038 1.51193e-7 0 -1.517983 1.32706e-7 0.2092324 -1.272016 0 0.1293127 -1.272016 0 -0.1293127 -1.517983 1.32706e-7 -0.2092324 -1.688985 -0.267508 0 -1.499294 -0.2374641 0.2092324 -1.256355 -0.1989865 0.1293127 -1.256355 -0.1989865 -0.1293127 -1.499294 -0.2374641 -0.2092324 -1.626343 -0.5284302 0 -1.443688 -0.469082 0.2092324 -1.209759 -0.393074 0.1293127 -1.209759 -0.393074 -0.1293127 -1.443688 -0.469082 -0.2092324 -1.523655 -0.7763405 0 -1.352533 -0.6891495 0.2092324 -1.133375 -0.5774827 0.1293127 -1.133375 -0.5774827 -0.1293127 -1.352533 -0.6891495 -0.2092324 -1.38345 -1.005135 0 -1.228075 -0.8922478 0.2092324 -1.029083 -0.7476719 0.1293127 -1.029083 -0.7476719 -0.1293127 -1.228075 -0.8922478 -0.2092324 -1.20918 -1.209179 0 -1.073377 -1.073376 0.2092324 -0.8994511 -0.8994507 0.1293127 -0.8994511 -0.8994507 -0.1293127 -1.073377 -1.073376 -0.2092324 -1.005136 -1.38345 0 -0.8922485 -1.228074 0.2092324 -0.7476723 -1.029082 0.1293127 -0.7476723 -1.029082 -0.1293127 -0.8922485 -1.228074 -0.2092324 -0.7763413 -1.523655 0 -0.6891502 -1.352533 0.2092324 -0.5774833 -1.133374 0.1293127 -0.5774833 -1.133374 -0.1293127 -0.6891502 -1.352533 -0.2092324 -0.5284309 -1.626343 0 -0.4690827 -1.443688 0.2092324 -0.3930745 -1.209759 0.1293127 -0.3930745 -1.209759 -0.1293127 -0.4690827 -1.443688 -0.2092324 -0.2675089 -1.688985 0 -0.2374648 -1.499294 0.2092324 -0.198987 -1.256355 0.1293127 -0.198987 -1.256355 -0.1293127 -0.2374648 -1.499294 -0.2092324 1.23639e-7 -1.710038 0 1.19209e-7 -1.517983 0.2092324 1.19209e-7 -1.272016 0.1293127 1.19209e-7 -1.272016 -0.1293127 1.19209e-7 -1.517983 -0.2092324 0.2675092 -1.688985 0 0.2374652 -1.499294 0.2092324 0.1989873 -1.256355 0.1293127 0.1989873 -1.256355 -0.1293127 0.2374652 -1.499294 -0.2092324 0.5284311 -1.626343 0 0.469083 -1.443688 0.2092324 0.3930748 -1.209759 0.1293127 0.3930748 -1.209759 -0.1293127 0.469083 -1.443688 -0.2092324 0.7763414 -1.523655 0 0.6891503 -1.352533 0.2092324 0.5774834 -1.133374 0.1293127 0.5774834 -1.133374 -0.1293127 0.6891503 -1.352533 -0.2092324 1.005134 -1.38345 0 0.8922474 -1.228075 0.2092324 0.7476715 -1.029083 0.1293127 0.7476715 -1.029083 -0.1293127 0.8922474 -1.228075 -0.2092324 1.209179 -1.20918 0 1.073376 -1.073377 0.2092324 0.8994506 -0.8994516 0.1293128 0.8994506 -0.8994516 -0.1293128 1.073376 -1.073377 -0.2092324 1.383449 -1.005136 0 1.228074 -0.8922489 0.2092324 1.029082 -0.7476726 0.1293127 1.029082 -0.7476726 -0.1293127 1.228074 -0.8922489 -0.2092324 1.523655 -0.7763417 0 1.352533 -0.6891506 0.2092324 1.133374 -0.5774835 0.1293127 1.133374 -0.5774835 -0.1293127 1.352533 -0.6891506 -0.2092324 1.626343 -0.5284314 0 1.443688 -0.4690831 0.2092324 1.209759 -0.3930749 0.1293127 1.209759 -0.3930749 -0.1293127 1.443688 -0.4690831 -0.2092324 1.688985 -0.2675094 0 1.499294 -0.2374653 0.2092324 1.256355 -0.1989874 0.1293127 1.256355 -0.1989874 -0.1293127 1.499294 -0.2374653 -0.2092324 -0.6148109 0.8462143 0.2323605 -0.7396186 0.7396183 0.2323605 0.9947847 0.323225 0.2323605 0.9319736 0.4748643 0.2323605 -0.8826375 0.8826369 0.2980784 -1.23287 -0.1952667 0.2980785 -1.033101 -0.1636266 0.2323605 -0.7336958 -1.009845 0.2980785 -0.5666882 -1.112188 0.2980784 0 -1.248238 0.2980785 0 -1.045979 0.2323605 0.3232254 0.9947846 0.2323605 0.1636273 1.033101 0.2323605 -1.187144 -0.3857261 0.2980784 -1.112188 -0.5666876 0.2980785 0.1952676 1.232869 0.2980785 1.187144 -0.3857271 0.2980785 0.9947844 -0.3232254 0.2323605 -0.7336958 1.009845 0.2980785 1.112188 0.566688 0.2980785 -1.187144 0.3857266 0.2980785 -0.9947848 0.3232252 0.2323605 -0.3857266 -1.187144 0.2980785 -0.1952673 -1.232869 0.2980785 0 1.248238 0.2980785 -0.1952673 1.232869 0.2980785 1.009845 -0.7336962 0.2980785 1.112187 -0.5666884 0.2980784 1.187144 0.3857265 0.2980785 0.7336955 1.009845 0.2980785 0.6148105 0.8462145 0.2323605 -0.8462145 0.6148105 0.2323605 -0.9319736 0.4748644 0.2323605 -1.112188 0.5666881 0.2980785 0.3857269 -1.187144 0.2980785 0.3232254 -0.9947846 0.2323605 -0.9947848 -0.3232247 0.2323605 -0.9319739 -0.474864 0.2323605 0.4748646 0.9319735 0.2323605 0.5666882 1.112188 0.2980784 0.8462139 -0.6148111 0.2323605 0.9319733 -0.4748647 0.2323605 1.045978 0 0.2323605 1.033101 0.1636271 0.2323605 -1.248237 0 0.2980785 1.23287 0.1952674 0.2980784 -1.009846 0.7336953 0.2980784 0.1636273 -1.033101 0.2323605 0.1952676 -1.232869 0.2980785 1.009845 0.7336957 0.2980785 0.8826371 0.8826372 0.2980784 -1.009846 -0.7336953 0.2980784 -0.8462145 -0.6148105 0.2323605 0.3857269 1.187144 0.2980785 -0.3857266 1.187144 0.2980785 -0.5666882 1.112188 0.2980784 1.248237 0 0.2980785 0.733695 -1.009846 0.2980785 0.6148102 -0.8462148 0.2323605 0.7396181 -0.7396189 0.2323605 -0.7396186 -0.7396183 0.2323605 -0.3232252 -0.9947847 0.2323605 -0.163627 -1.033101 0.2323605 -0.8826375 -0.8826369 0.2980784 -0.6148109 -0.8462143 0.2323605 1.23287 -0.1952677 0.2980784 -0.3232252 0.9947847 0.2323605 -0.4748644 0.9319736 0.2323605 -1.23287 0.1952673 0.2980784 0.8826367 -0.8826377 0.2980785 0 1.045979 0.2323605 0.5666882 -1.112188 0.2980784 -1.033101 0.163627 0.2323605 -0.163627 1.033101 0.2323605 0.8462143 0.6148108 0.2323605 0.7396185 0.7396185 0.2323605 0.4748646 -0.9319735 0.2323605 -0.4748644 -0.9319736 0.2323605 -1.045978 0 0.2323605 1.033101 -0.1636273 0.2323605 -0.3651331 1.123764 -0.3922712 -0.5364332 1.052809 -0.3922712 -0.4495119 0.8822164 -0.3300619 0.8010354 -0.581987 -0.3300619 0.9559303 -0.6945248 -0.3922712 -1.123764 0.3651331 -0.3922712 -1.167048 0.1848422 -0.3922712 -0.3059685 -0.9416742 -0.3300619 -0.3651331 -1.123764 -0.3922712 -0.9779446 0.1548911 -0.3300619 0.6945242 0.9559308 -0.3922712 0.5364333 1.052809 -0.3922712 0.449512 0.8822163 -0.3300619 1.181595 0 -0.3922712 1.167048 0.1848422 -0.3922712 -0.9901347 0 -0.3300619 -0.9779446 -0.1548907 -0.3300619 0.9779444 0.1548912 -0.3300619 -0.801036 0.5819863 -0.3300619 -0.955931 0.694524 -0.3922712 1.052809 -0.5364335 -0.3922712 0.1548913 -0.9779446 -0.3300619 0.1848424 -1.167048 -0.3922712 0.5819861 -0.8010363 -0.3300619 0.7001306 -0.7001314 -0.3300619 0.8822162 -0.4495121 -0.3300619 0 -1.181595 -0.3922712 -0.9416742 0.3059685 -0.3300619 0.3059687 0.9416739 -0.3300619 0.1548913 0.9779444 -0.3300619 -0.801036 -0.5819864 -0.3300619 -0.955931 -0.694524 -0.3922712 1.123764 -0.3651334 -0.3922712 1.167048 -0.1848426 -0.3922712 0.9779443 -0.1548914 -0.3300619 -0.3059685 0.9416741 -0.3300619 0.8010358 0.5819866 -0.3300619 0.9559307 0.6945244 -0.3922712 0.9901346 0 -0.3300619 -0.6945245 0.9559305 -0.3922712 -0.8355143 0.8355137 -0.3922712 -0.5819867 -0.8010358 -0.3300619 -0.4495119 -0.8822165 -0.3300619 -1.181595 0 -0.3922712 -1.167048 -0.1848416 -0.3922712 -0.7001311 0.7001307 -0.3300619 0.6945237 -0.9559313 -0.3922712 0.8355135 -0.8355146 -0.3922712 0 -0.9901348 -0.3300619 0.9416739 -0.3059688 -0.3300619 0.9416741 0.3059684 -0.3300619 0.8822165 0.4495117 -0.3300619 -0.1848422 -1.167048 -0.3922712 -0.5819867 0.8010357 -0.3300619 -0.1548911 -0.9779446 -0.3300619 0 0.9901347 -0.3300619 -0.1548911 0.9779444 -0.3300619 -0.9416742 -0.3059681 -0.3300619 -1.123764 -0.3651325 -0.3922712 0.5819864 0.8010358 -0.3300619 -1.052809 0.5364332 -0.3922712 -0.8822165 0.4495118 -0.3300619 0.3059687 -0.9416741 -0.3300619 0.3651333 -1.123764 -0.3922712 -1.052809 -0.5364327 -0.3922712 0 1.181595 -0.3922712 -0.1848422 1.167048 -0.3922712 -0.8822167 -0.4495114 -0.3300619 0.5364333 -1.052809 -0.3922712 0.8355139 0.835514 -0.3922712 0.7001309 0.7001309 -0.3300619 0.449512 -0.8822164 -0.3300619 -0.6945245 -0.9559307 -0.3922712 -0.5364332 -1.052809 -0.3922712 -0.7001311 -0.7001308 -0.3300619 0.3651333 1.123764 -0.3922712 0.1848424 1.167048 -0.3922712 1.123764 0.3651329 -0.3922712 1.052809 0.5364331 -0.3922712 -0.8355143 -0.8355138 -0.3922712</float_array>
          <technique_common>
            <accessor source="#Torus-mesh-positions-array" count="360" stride="3">
              <param name="X" type="float"/>
              <param name="Y" type="float"/>
              <param name="Z" type="float"/>
            </accessor>
          </technique_common>
        </source>
        <source id="Torus-mesh-normals">
          <float_array id="Torus-mesh-normals-array" count="2160">0.7354657 0.05788242 0.6750851 -0.28983 -0.1200511 0.949519 -0.9969173 -0.07845914 0 -0.408495 0.250326 -0.8777634 0.7354658 0.05788248 -0.6750851 0.7173561 0.1722216 0.6750851 -0.3013188 -0.07234019 0.9507755 -0.9723699 -0.2334451 0 -0.3013188 -0.07234019 -0.9507755 0.7173561 0.1722216 -0.6750851 0.6815824 0.282321 0.6750853 0.3090169 -0.9510565 -1.71628e-7 -0.9238796 -0.3826833 0 -0.7071065 -0.707107 6.21697e-7 0.6815824 0.282321 -0.6750853 0.6290271 0.3854678 0.6750848 -0.264217 -0.1619122 0.9507753 -0.8526402 -0.5224986 0 -0.264217 -0.1619122 -0.9507753 0.6290271 0.3854678 -0.6750848 0.5609818 0.4791235 0.6750852 -0.1564344 -0.9876883 0 -0.7604058 -0.6494482 0 -0.3037223 -0.4956297 0.8136978 0.5609818 0.4791235 -0.6750852 0.4791236 0.5609821 0.6750849 -0.2012515 -0.2356352 0.9507753 -0.6494479 -0.7604063 0 -0.2012515 -0.2356352 -0.9507753 0.4791236 0.5609821 -0.6750849 0.385468 0.6290267 0.6750849 0.7071073 0.7071063 3.65255e-7 -0.5224987 -0.8526402 0 0.408495 -0.2503259 -0.8777635 0.385468 0.6290267 -0.6750849 0.282321 0.6815832 0.6750847 -0.1185863 -0.2862925 0.9507753 -0.3826839 -0.9238793 0 -0.1185863 -0.2862925 -0.9507753 0.282321 0.6815832 -0.6750847 0.1722224 0.7173559 0.6750853 -0.3842196 -0.1591489 -0.9094211 -0.2334454 -0.9723699 0 -0.9876883 -0.1564344 0 0.1722224 0.7173559 -0.6750853 0.05788272 0.7354658 0.675085 -0.02431321 -0.3089257 0.9507754 -0.07845968 -0.9969173 0 -0.02431321 -0.3089257 -0.9507754 0.05788272 0.7354658 -0.675085 -0.0578832 0.7354654 0.6750853 -0.1591492 0.3842196 -0.9094212 0.07845973 -0.9969173 0 -0.4776173 -0.03758913 -0.8777635 -0.0578832 0.7354654 -0.6750853 -0.1722217 0.7173561 0.6750852 0.07234013 -0.301319 0.9507754 0.2334449 -0.9723701 0 0.07234013 -0.301319 -0.9507754 -0.1722217 0.7173561 -0.6750852 -0.2823211 0.6815826 0.6750851 -0.9510565 -0.3090173 0 0.3826836 -0.9238794 0 -0.2224496 0.5370403 0.8136976 -0.2823211 0.6815826 -0.6750851 -0.385468 0.6290267 0.6750851 0.1619122 -0.2642168 0.9507753 0.5224989 -0.85264 0 0.1619122 -0.2642168 -0.9507753 -0.385468 0.6290267 -0.6750851 -0.4791242 0.5609813 0.6750851 0.809017 0.5877855 0 0.6494487 -0.7604054 0 0.8090169 0.5877854 -3.32786e-7 -0.4791242 0.5609813 -0.6750851 -0.5609822 0.4791239 0.6750848 0.2356352 -0.2012514 0.9507755 0.760406 -0.649448 0 0.2356352 -0.2012514 -0.9507755 -0.5609822 0.4791239 -0.6750848 -0.6290262 0.3854687 0.6750852 -0.8910064 0.4539906 -3.65255e-7 0.8526399 -0.5224989 0 0.2503259 0.408495 -0.8777635 -0.6290262 0.3854687 -0.6750852 -0.6815826 0.2823208 0.6750852 0.2862926 -0.1185863 0.9507753 0.9238793 -0.3826838 0 0.2862926 -0.1185863 -0.9507753 -0.6815826 0.2823208 -0.6750852 -0.7173561 0.1722218 0.675085 0.8910064 -0.4539908 3.13076e-7 0.97237 -0.2334448 0 0.2224494 -0.5370403 0.8136978 -0.7173561 0.1722218 -0.675085 -0.7354658 0.05788248 0.6750851 0.3089256 -0.02431291 0.9507755 0.9969173 -0.0784592 0 0.3089256 -0.02431291 -0.9507755 -0.7354658 0.05788248 -0.6750851 -0.7354656 -0.05788218 0.6750853 0.2700904 -0.3162347 -0.9094212 0.9969173 0.07845878 0 0.809017 -0.5877853 3.99344e-7 -0.7354656 -0.05788218 -0.6750853 -0.7173559 -0.1722218 0.6750854 0.3013188 0.07234025 0.9507754 0.9723699 0.2334454 0 0.3013188 0.07234025 -0.9507754 -0.7173559 -0.1722218 -0.6750854 -0.6815829 -0.2823206 0.6750851 0.9510565 -0.3090173 0 0.9238799 0.3826829 0 -0.4539905 -0.8910065 0 -0.6815829 -0.2823206 -0.6750851 -0.6290268 -0.3854681 0.6750848 0.2642168 0.1619122 0.9507755 0.8526403 0.5224984 0 0.2642168 0.1619122 -0.9507755 -0.6290266 -0.3854684 -0.6750848 -0.5609821 -0.4791235 0.6750851 0.07323372 0.3050419 0.949519 0.760406 0.649448 0 0.1833418 -0.4426251 -0.8777635 -0.5609821 -0.4791235 -0.6750851 -0.4791242 -0.5609815 0.6750851 0.2012516 0.2356351 0.9507754 0.6494487 0.7604054 0 0.2012516 0.2356351 -0.9507754 -0.4791242 -0.5609815 -0.6750851 -0.3854677 -0.6290267 0.6750851 0.203738 -0.2385468 0.9495189 0.5224989 0.85264 0 -0.111842 -0.4658569 -0.8777635 -0.3854677 -0.6290267 -0.6750851 -0.2823212 -0.6815828 0.6750849 0.1185863 0.2862927 0.9507753 0.3826836 0.9238794 0 0.1185863 0.2862927 -0.9507753 -0.2823212 -0.6815828 -0.6750849 -0.1722214 -0.717356 0.6750854 -0.5877849 0.8090173 -6.86512e-7 0.2334449 0.9723701 0 0.4658567 -0.1118425 -0.8777635 -0.1722214 -0.717356 -0.6750854 -0.05788272 -0.7354658 0.675085 0.02431321 0.3089257 0.9507754 0.07845973 0.9969173 0 0.02431321 0.3089257 -0.9507754 -0.05788272 -0.7354658 -0.675085 0.0578832 -0.7354655 0.6750854 0.03262954 -0.4145943 -0.9094211 -0.07845968 0.9969173 0 0.3037225 0.4956297 0.8136976 0.0578832 -0.7354655 -0.6750854 0.1722216 -0.7173566 0.6750846 -0.07234007 0.3013188 0.9507753 -0.2334454 0.9723699 0 -0.07234007 0.3013188 -0.9507753 0.1722216 -0.7173566 -0.6750846 0.2823215 -0.6815827 0.675085 -0.02461385 0.3127425 0.9495189 -0.3826839 0.9238793 0 -0.5370404 -0.2224493 0.8136978 0.2823215 -0.6815827 -0.675085 0.3854677 -0.6290269 0.675085 -0.1619123 0.264217 0.9507754 -0.522498 0.8526406 0 -0.1619123 0.264217 -0.9507754 0.3854677 -0.6290269 -0.675085 0.4791232 -0.5609821 0.6750852 -0.2674814 0.163913 0.9495189 -0.6494477 0.7604062 0 0.5877849 0.8090172 -4.65901e-7 0.4791232 -0.5609821 -0.6750852 0.5609816 -0.479124 0.675085 -0.2356352 0.2012515 0.9507755 -0.7604061 0.6494479 0 -0.2356352 0.2012515 -0.9507755 0.5609816 -0.479124 -0.675085 0.6290267 -0.385468 0.6750853 -0.2172948 -0.354593 -0.9094212 -0.8526398 0.5224991 0 0.3090168 -0.9510566 0 0.6290267 -0.385468 -0.6750853 0.6815831 -0.282321 0.6750847 -0.2862924 0.1185865 0.9507755 -0.9238793 0.3826839 0 -0.2862924 0.1185865 -0.9507755 0.6815831 -0.282321 -0.6750847 0.7173559 -0.1722227 0.675085 0.5877849 0.8090173 6.86512e-7 -0.9723699 0.2334454 0 0.1118419 0.4658568 -0.8777635 0.7173559 -0.1722227 -0.675085 0.7354657 -0.05788236 0.675085 -0.3089256 0.02431285 0.9507754 -0.9969173 0.07845962 0 -0.3089256 0.02431285 -0.9507754 0.7354657 -0.05788236 -0.675085 -0.3089255 -0.02431279 0.9507754 -0.2862927 -0.1185862 0.9507753 -0.2356353 -0.2012515 0.9507754 -0.1619124 -0.2642168 0.9507754 -0.0723403 -0.301319 0.9507753 0.02431315 -0.3089258 0.9507753 0.1185864 -0.2862926 0.9507754 0.2012516 -0.2356349 0.9507754 0.264217 -0.1619122 0.9507755 0.3013188 -0.07234007 0.9507754 0.3089258 0.02431297 0.9507753 0.2862927 0.1185862 0.9507753 0.2356351 0.2012514 0.9507755 0.1619123 0.2642168 0.9507754 0.07234013 0.3013191 0.9507753 -0.02431309 0.3089258 0.9507753 -0.1185863 0.2862926 0.9507755 -0.2012516 0.2356353 0.9507754 -0.2642168 0.1619125 0.9507755 -0.3013185 0.07234048 0.9507755 0.4539908 0.8910064 3.13076e-7 0.4145944 0.03262895 -0.9094212 -0.2700899 0.316235 -0.9094211 -0.9510565 0.309017 -2.57442e-7 0.3090171 0.9510565 0 -0.03262954 0.4145944 -0.9094212 -0.3162348 -0.2700901 -0.9094212 0.1200519 -0.2898297 0.949519 -0.9876883 0.1564347 0 0.8910064 0.4539906 3.65255e-7 -0.7071064 -0.7071071 -8.34868e-7 0.2172948 0.354593 -0.9094212 0.9876884 -0.1564344 1.82627e-7 0.38422 0.1591488 -0.9094211 0.2674815 -0.1639125 0.949519 0.3050417 -0.07323408 0.949519 0.2898299 0.1200516 0.9495189 -0.4043856 0.0970844 -0.9094212 0.1591491 -0.3842197 -0.9094211 0.809017 -0.5877853 -3.43256e-7 -0.1200518 0.2898297 0.949519 -0.3090173 -0.9510565 0 -0.2037383 0.2385465 0.9495189 0.9876883 0.1564347 0 -0.3545928 0.2172951 -0.9094212 0.316235 0.2700902 -0.9094211 -0.3090165 0.9510567 0 -0.3050418 0.0732339 0.949519 0.354593 -0.2172949 -0.9094212 -0.5877857 -0.8090167 0 0.1564339 -0.9876884 0 -0.4145944 -0.03262919 -0.9094212 0.9510565 0.309017 2.57442e-7 -0.9876884 -0.1564344 -1.82627e-7 -0.4539905 0.8910066 -2.60896e-7 -0.3127427 -0.02461308 0.9495189 0.5877853 -0.8090171 0 0.02461385 -0.3127425 0.949519 -0.1639126 -0.2674815 0.949519 0.4539903 -0.8910066 -2.60896e-7 0.09708422 0.4043858 -0.9094212 0 -1 0 -0.1564345 0.9876883 0 -0.4539908 -0.8910063 0 0.7071064 -0.7071071 8.34868e-7 -0.707107 0.7071066 -5.21793e-7 -0.8090173 -0.5877848 3.43256e-7 0.4043859 -0.09708404 -0.9094211 0.2385463 0.2037385 0.949519 -1 0 -1.70925e-7 0.1564347 0.9876883 0 -0.2385467 -0.2037381 0.949519 -0.8910064 -0.4539908 -3.13076e-7 0 1 0 0.1639126 0.2674815 0.9495189 1 0 1.70925e-7 -0.09708446 -0.4043857 -0.9094212 0.3127425 0.02461344 0.9495189 -0.809017 0.5877855 0 -0.07323372 -0.3050419 0.9495189 -0.3089257 -0.02431285 -0.9507754 -0.2862927 -0.1185863 -0.9507753 -0.2356355 -0.2012518 -0.9507754 -0.1619123 -0.2642168 -0.9507755 -0.07234036 -0.3013189 -0.9507755 0.02431309 -0.3089257 -0.9507754 0.1185864 -0.2862927 -0.9507753 0.2012517 -0.2356351 -0.9507754 0.264217 -0.1619123 -0.9507753 0.3013191 -0.0723403 -0.9507753 0.3089258 0.02431291 -0.9507753 0.2862928 0.1185861 -0.9507754 0.2356352 0.2012515 -0.9507754 0.1619126 0.2642171 -0.9507753 0.07234013 0.3013191 -0.9507753 -0.02431309 0.3089259 -0.9507753 -0.1185864 0.2862927 -0.9507753 -0.2012516 0.2356352 -0.9507755 -0.2642168 0.1619125 -0.9507755 -0.3013187 0.07234019 -0.9507755 0.3643057 0.311147 -0.8777635 0.1564347 0.9876883 0 -0.9510564 -0.3090173 0 0.9876883 0.1564347 0 0.7071071 0.7071065 -3.10848e-7 -0.1833416 0.4426252 -0.8777635 0.7071065 -0.7071071 -3.10848e-7 0.3775168 -0.4420148 0.8136976 -0.8090168 0.5877855 0 0 -1 0 0 1 0 -0.3775163 0.4420152 0.8136976 -0.8910065 0.4539906 3.10848e-7 0.9876883 -0.1564344 0 0.453991 0.8910062 -4.14465e-7 -0.7071069 0.7071066 4.14465e-7 0.9510565 0.309017 0 -0.8090174 -0.5877848 0 0.4776173 0.03758937 -0.8777635 0.3090171 0.9510565 0 0.4420151 0.3775166 0.8136977 -0.8910065 -0.4539906 0 0.1564339 -0.9876884 0 -0.4426256 -0.183341 -0.8777635 0.5877853 -0.809017 0 -0.3643062 -0.3111468 -0.8777635 0.03758984 -0.4776173 -0.8777635 0.8910065 -0.4539906 0 -0.5877856 -0.8090168 0 1 0 -1.24922e-7 0.4956297 -0.3037225 0.8136976 0.5652275 -0.1356986 0.8136976 -0.4956294 0.3037226 0.8136978 0.04560762 -0.5794963 0.8136978 -0.3090172 -0.9510565 0 0.3111467 -0.3643062 -0.8777635 -0.03758984 0.4776172 -0.8777635 -0.5794963 -0.04560738 0.8136978 -0.5652272 0.135699 0.8136978 -0.4420149 -0.3775166 0.8136977 -0.4658568 0.1118422 -0.8777635 0.4426252 0.1833416 -0.8777635 -0.9876883 0.1564347 0 0.9510564 -0.3090171 0 -0.9510564 0.3090171 1.66393e-7 0.8910065 0.4539906 -3.10848e-7 -1 0 1.24922e-7 0.4539902 -0.8910067 0 -0.4539906 0.8910065 3.10848e-7 -0.04560762 0.5794964 0.8136976 0.5794965 0.04560714 0.8136977 -0.2503259 -0.4084951 -0.8777635 -0.1356992 -0.5652271 0.8136977 -0.1564345 0.9876883 0 0.5370406 0.222449 0.8136976 -0.3111471 0.3643058 -0.8777635 -0.5877847 0.8090174 5.65737e-7 0.1356988 0.5652274 0.8136976 -0.1564344 -0.9876883 0 -0.3090166 0.9510566 0 0.7354658 0.05788248 0.6750851 -0.28983 -0.1200511 0.949519 -0.9969173 -0.07845914 0 -0.4084949 0.2503261 -0.8777634 0.7354657 0.05788242 -0.6750851 0.7173562 0.1722217 0.6750851 -0.3013188 -0.07234019 0.9507755 -0.9723699 -0.2334451 0 -0.3013188 -0.07234013 -0.9507755 0.7173562 0.1722217 -0.6750851 0.6815828 0.2823209 0.6750851 0.3090168 -0.9510567 -1.50015e-7 -0.9238796 -0.3826833 0 -0.7071063 -0.7071073 6.98851e-7 0.6815828 0.2823209 -0.6750851 0.6290264 0.3854681 0.6750852 -0.264217 -0.1619124 0.9507753 -0.8526402 -0.5224986 0 -0.264217 -0.1619125 -0.9507753 0.6290264 0.3854681 -0.6750852 0.5609816 0.4791243 0.6750848 -0.1564345 -0.9876884 0 -0.7604058 -0.6494482 0 -0.3037224 -0.4956296 0.8136978 0.5609817 0.4791243 -0.6750848 0.4791238 0.5609815 0.6750853 -0.2012515 -0.2356354 0.9507754 -0.6494479 -0.7604063 0 -0.2012515 -0.2356354 -0.9507754 0.4791238 0.5609815 -0.6750853 0.3854681 0.6290268 0.675085 0.7071071 0.7071065 3.05712e-7 -0.5224987 -0.8526401 0 0.408495 -0.250326 -0.8777634 0.3854681 0.6290268 -0.6750849 0.2823214 0.6815827 0.675085 -0.1185864 -0.2862926 0.9507754 -0.3826839 -0.9238793 0 -0.1185864 -0.2862926 -0.9507755 0.2823214 0.6815826 -0.675085 0.1722216 0.7173566 0.6750845 -0.3842196 -0.159149 -0.9094212 -0.2334454 -0.9723699 0 -0.9876884 -0.1564344 0 0.1722216 0.7173566 -0.6750845 0.0578832 0.7354655 0.6750853 -0.02431315 -0.3089257 0.9507753 -0.07845968 -0.9969173 0 -0.02431315 -0.3089258 -0.9507754 0.05788314 0.7354655 -0.6750853 -0.05788272 0.7354658 0.675085 -0.1591492 0.3842196 -0.9094212 0.07845973 -0.9969173 0 -0.4776172 -0.03758925 -0.8777635 -0.05788272 0.7354658 -0.675085 -0.1722214 0.717356 0.6750854 0.07234013 -0.301319 0.9507755 0.2334449 -0.9723701 0 0.07234013 -0.301319 -0.9507754 -0.1722214 0.717356 -0.6750854 -0.2823211 0.6815825 0.6750852 -0.9510565 -0.3090172 0 0.3826836 -0.9238794 0 -0.2224497 0.5370402 0.8136977 -0.2823211 0.6815825 -0.6750852 -0.3854678 0.6290267 0.6750851 0.1619124 -0.2642169 0.9507754 0.5224989 -0.85264 0 0.1619124 -0.2642169 -0.9507754 -0.3854677 0.6290268 -0.6750851 -0.4791242 0.5609815 0.6750851 0.8090169 0.5877855 0 0.6494487 -0.7604054 0 0.809017 0.5877853 -2.71992e-7 -0.4791242 0.5609815 -0.6750851 -0.5609822 0.4791233 0.6750851 0.2356352 -0.2012515 0.9507754 0.760406 -0.649448 0 0.2356352 -0.2012515 -0.9507754 -0.5609822 0.4791233 -0.675085 -0.6290268 0.3854683 0.6750847 -0.8910065 0.4539906 -3.43256e-7 0.8526399 -0.5224989 0 0.2503261 0.408495 -0.8777635 -0.6290268 0.3854683 -0.6750847 -0.6815827 0.2823209 0.6750852 0.2862926 -0.1185863 0.9507754 0.9238793 -0.3826838 0 0.2862926 -0.1185863 -0.9507754 -0.6815828 0.2823209 -0.6750852 -0.7173562 0.1722217 0.6750851 0.8910064 -0.4539906 2.94986e-7 0.97237 -0.2334448 0 0.2224494 -0.5370402 0.8136978 -0.7173562 0.1722216 -0.6750852 -0.7354657 0.05788254 0.6750851 0.3089256 -0.02431291 0.9507754 0.9969174 -0.0784592 0 0.3089256 -0.02431291 -0.9507754 -0.7354657 0.05788254 -0.6750851 -0.7354658 -0.05788195 0.6750851 0.2700904 -0.3162347 -0.9094211 0.9969173 0.07845878 0 0.809017 -0.5877853 4.40368e-7 -0.7354657 -0.05788201 -0.675085 -0.717356 -0.1722216 0.6750852 0.301319 0.07234007 0.9507753 0.9723699 0.2334454 0 0.301319 0.07234007 -0.9507754 -0.717356 -0.1722216 -0.6750852 -0.6815828 -0.28232 0.6750854 0.9510565 -0.3090172 0 0.9238799 0.3826829 0 -0.4539906 -0.8910065 0 -0.6815828 -0.28232 -0.6750854 -0.6290265 -0.3854684 0.6750851 0.2642168 0.1619122 0.9507753 0.8526403 0.5224984 0 0.2642168 0.1619122 -0.9507755 -0.6290267 -0.3854681 -0.6750851 -0.560982 -0.4791238 0.6750848 0.07323378 0.3050419 0.9495189 0.760406 0.649448 0 0.1833418 -0.4426252 -0.8777635 -0.560982 -0.4791238 -0.6750849 -0.4791242 -0.5609813 0.6750851 0.2012516 0.235635 0.9507754 0.6494487 0.7604054 0 0.2012516 0.235635 -0.9507754 -0.4791242 -0.5609813 -0.6750851 -0.385468 -0.6290267 0.6750851 0.203738 -0.2385467 0.9495189 0.5224989 0.85264 0 -0.1118422 -0.4658569 -0.8777635 -0.3854679 -0.6290267 -0.6750851 -0.2823209 -0.6815827 0.6750851 0.1185863 0.2862926 0.9507753 0.3826836 0.9238794 0 0.1185863 0.2862926 -0.9507753 -0.2823208 -0.6815827 -0.6750851 -0.172222 -0.7173562 0.6750849 -0.587785 0.8090171 -6.7833e-7 0.2334449 0.9723701 0 0.4658567 -0.1118424 -0.8777635 -0.172222 -0.7173562 -0.675085 -0.0578832 -0.7354654 0.6750853 0.02431321 0.3089258 0.9507754 0.07845973 0.9969173 0 0.02431315 0.3089258 -0.9507754 -0.0578832 -0.7354654 -0.6750853 0.05788272 -0.7354658 0.675085 0.03262948 -0.4145944 -0.9094211 -0.07845968 0.9969173 0 0.3037226 0.4956297 0.8136977 0.05788272 -0.7354658 -0.675085 0.1722224 -0.7173559 0.6750852 -0.0723403 0.301319 0.9507753 -0.2334454 0.9723699 0 -0.0723403 0.301319 -0.9507753 0.1722224 -0.7173559 -0.6750853 0.282321 -0.6815832 0.6750847 -0.02461373 0.3127426 0.9495189 -0.3826839 0.9238793 0 -0.5370403 -0.2224493 0.8136978 0.282321 -0.6815832 -0.6750845 0.3854678 -0.6290269 0.675085 -0.1619122 0.264217 0.9507754 -0.5224979 0.8526406 0 -0.1619122 0.264217 -0.9507755 0.3854677 -0.629027 -0.675085 0.4791235 -0.560982 0.675085 -0.2674813 0.163913 0.9495189 -0.6494478 0.7604063 0 0.5877848 0.8090174 -5.31033e-7 0.4791235 -0.5609821 -0.6750851 0.5609817 -0.4791238 0.6750852 -0.2356351 0.2012518 0.9507754 -0.7604061 0.6494479 0 -0.2356352 0.2012517 -0.9507754 0.5609817 -0.4791238 -0.6750852 0.6290267 -0.3854683 0.675085 -0.2172948 -0.3545929 -0.9094211 -0.8526398 0.5224991 0 0.3090169 -0.9510566 0 0.6290267 -0.3854683 -0.675085 0.6815823 -0.2823215 0.6750852 -0.2862926 0.1185864 0.9507755 -0.9238793 0.3826839 0 -0.2862926 0.1185864 -0.9507755 0.6815823 -0.2823215 -0.6750852 0.7173564 -0.1722222 0.6750848 0.587785 0.8090171 6.7833e-7 -0.9723699 0.2334454 0 0.1118422 0.4658569 -0.8777635 0.7173563 -0.1722222 -0.6750847 0.7354657 -0.05788236 0.6750851 -0.3089255 0.02431309 0.9507755 -0.9969173 0.07845962 0 -0.3089254 0.02431309 -0.9507755 0.7354657 -0.0578823 -0.6750851 -0.3089256 -0.02431291 0.9507754 -0.2862925 -0.1185864 0.9507754 -0.2356353 -0.2012515 0.9507754 -0.1619124 -0.2642168 0.9507753 -0.07234019 -0.301319 0.9507754 0.02431315 -0.3089258 0.9507754 0.1185861 -0.2862929 0.9507753 0.2012515 -0.2356353 0.9507753 0.2642167 -0.1619123 0.9507755 0.301319 -0.07234036 0.9507754 0.3089257 0.02431273 0.9507755 0.2862927 0.1185861 0.9507755 0.2356352 0.2012514 0.9507755 0.1619124 0.2642168 0.9507754 0.07234025 0.3013191 0.9507753 -0.02431315 0.3089258 0.9507753 -0.1185862 0.2862927 0.9507754 -0.2012516 0.2356355 0.9507753 -0.2642167 0.1619122 0.9507754 -0.3013187 0.07234036 0.9507755 0.4539911 0.8910063 3.53983e-7 0.4145945 0.03262913 -0.9094212 -0.2700899 0.316235 -0.9094212 -0.9510564 0.3090171 -2.77202e-7 0.3090173 0.9510565 -1.27187e-7 -0.03262943 0.4145944 -0.9094212 -0.316235 -0.2700901 -0.9094212 0.1200518 -0.2898298 0.9495189 -0.9876883 0.1564347 0 0.8910065 0.4539906 3.43256e-7 -0.7071066 -0.707107 -7.83053e-7 0.2172949 0.3545928 -0.9094211 0.9876884 -0.1564344 1.7431e-7 0.38422 0.1591488 -0.909421 0.2674815 -0.1639128 0.9495189 0.3050418 -0.07323408 0.949519 0.2898299 0.1200516 0.949519 -0.4043857 0.09708458 -0.9094211 0.1591491 -0.3842196 -0.9094212 0.809017 -0.5877853 -3.5221e-7 -0.1200517 0.2898299 0.949519 -0.3090173 -0.9510564 0 -0.2037383 0.2385465 0.949519 0.9876883 0.1564347 0 -0.3545928 0.217295 -0.9094212 0.316235 0.2700902 -0.909421 -0.3090167 0.9510565 0 -0.3050419 0.07323396 0.9495189 0.3545929 -0.2172949 -0.9094212 -0.5877856 -0.8090168 0 0.1564339 -0.9876885 0 -0.4145944 -0.03262931 -0.9094211 0.9510564 0.3090171 2.77202e-7 -0.9876884 -0.1564344 -1.7431e-7 -0.4539906 0.8910065 -2.94986e-7 -0.3127425 -0.0246132 0.949519 0.5877851 -0.809017 0 0.02461373 -0.3127426 0.9495189 -0.1639127 -0.2674816 0.949519 0.4539901 -0.8910068 -1.98445e-7 0.09708416 0.4043858 -0.9094212 0 -1 0 -0.1564345 0.9876883 0 -0.4539905 -0.8910065 0 0.7071066 -0.707107 7.83053e-7 -0.707107 0.7071067 -5.25611e-7 -0.8090173 -0.5877848 4.10911e-7 0.4043859 -0.0970838 -0.9094212 0.2385465 0.2037383 0.9495189 -1 0 -1.70925e-7 0.1564347 0.9876883 0 -0.2385467 -0.203738 0.949519 -0.8910064 -0.4539906 -2.94986e-7 0 1 0 0.1639128 0.2674815 0.9495189 1 0 1.70925e-7 -0.09708446 -0.4043858 -0.9094211 0.3127425 0.02461344 0.9495189 -0.8090169 0.5877855 0 -0.07323378 -0.3050419 0.9495189 -0.3089255 -0.02431303 -0.9507755 -0.2862925 -0.1185864 -0.9507754 -0.2356351 -0.2012518 -0.9507753 -0.1619123 -0.2642168 -0.9507754 -0.07234013 -0.3013188 -0.9507755 0.02431327 -0.3089255 -0.9507754 0.1185864 -0.2862927 -0.9507753 0.2012517 -0.2356352 -0.9507754 0.2642167 -0.1619125 -0.9507755 0.301319 -0.07234013 -0.9507753 0.3089257 0.02431285 -0.9507753 0.2862928 0.1185861 -0.9507755 0.2356353 0.2012515 -0.9507753 0.1619122 0.264217 -0.9507754 0.07234019 0.3013191 -0.9507753 -0.02431327 0.3089257 -0.9507754 -0.1185865 0.2862926 -0.9507753 -0.2012515 0.2356354 -0.9507753 -0.2642168 0.1619122 -0.9507755 -0.3013188 0.07234036 -0.9507755 0.3643057 0.3111471 -0.8777636 0.1564347 0.9876884 0 -0.9510564 -0.3090172 0 0.9876883 0.1564347 0 0.7071073 0.7071063 -4.15983e-7 -0.1833416 0.4426254 -0.8777635 0.7071064 -0.7071072 -3.49426e-7 0.3775169 -0.4420147 0.8136977 -0.8090168 0.5877854 0 0 -1 0 0 1 0 -0.3775163 0.4420152 0.8136976 -0.8910065 0.4539905 3.82704e-7 0.9876884 -0.1564345 0 0.4539911 0.8910062 -4.65901e-7 -0.707107 0.7071067 4.32623e-7 0.9510565 0.309017 -1.2952e-7 -0.8090173 -0.5877849 0 0.4776173 0.03758937 -0.8777635 0.3090171 0.9510565 0 0.4420152 0.3775166 0.8136977 -0.8910065 -0.4539906 0 0.1564341 -0.9876884 0 -0.4426255 -0.1833409 -0.8777635 0.5877853 -0.809017 0 -0.3643063 -0.3111468 -0.8777635 0.03758972 -0.4776174 -0.8777635 0.8910064 -0.4539908 -1.66393e-7 -0.5877857 -0.8090167 1.55424e-7 1 0 -1.24922e-7 0.4956295 -0.3037226 0.8136976 0.5652275 -0.1356986 0.8136977 -0.4956295 0.3037225 0.8136978 0.04560768 -0.5794962 0.8136978 -0.3090173 -0.9510564 0 0.3111466 -0.3643062 -0.8777635 -0.03758972 0.4776174 -0.8777635 -0.5794962 -0.04560714 0.8136978 -0.5652272 0.135699 0.8136978 -0.4420149 -0.3775165 0.8136978 -0.4658568 0.1118421 -0.8777635 0.4426252 0.1833416 -0.8777635 -0.9876883 0.1564347 0 0.9510564 -0.3090172 0 -0.9510565 0.309017 1.2952e-7 0.8910065 0.4539907 -2.99508e-7 -1 0 1.24922e-7 0.4539904 -0.8910065 2.16311e-7 -0.4539904 0.8910065 2.16311e-7 -0.04560768 0.5794964 0.8136976 0.5794964 0.04560703 0.8136976 -0.2503259 -0.4084951 -0.8777635 -0.135699 -0.5652271 0.8136978 -0.1564345 0.9876883 0 0.5370405 0.2224491 0.8136976 -0.311147 0.3643059 -0.8777635 -0.5877848 0.8090174 5.31033e-7 0.1356987 0.5652274 0.8136977 -0.1564345 -0.9876884 0 -0.3090165 0.9510567 0</float_array>
          <technique_common>
            <accessor source="#Torus-mesh-normals-array" count="720" stride="3">
              <param name="X" type="float"/>
              <param name="Y" type="float"/>
              <param name="Z" type="float"/>
            </accessor>
          </technique_common>
        </source>
        <vertices id="Torus-mesh-vertices">
          <input semantic="POSITION" source="#Torus-mesh-positions"/>
        </vertices>
        <polylist count="720">
          <input semantic="VERTEX" source="#Torus-mesh-vertices" offset="0"/>
          <input semantic="NORMAL" source="#Torus-mesh-normals" offset="1"/>
          <vcount>3 3 3 3 3 3 3 3 3 3 3 3 3 3 3 3 3 3 3 3 3 3 3 3 3 3 3 3 3 3 3 3 3 3 3 3 3 3 3 3 3 3 3 3 3 3 3 3 3 3 3 3 3 3 3 3 3 3 3 3 3 3 3 3 3 3 3 3 3 3 3 3 3 3 3 3 3 3 3 3 3 3 3 3 3 3 3 3 3 3 3 3 3 3 3 3 3 3 3 3 3 3 3 3 3 3 3 3 3 3 3 3 3 3 3 3 3 3 3 3 3 3 3 3 3 3 3 3 3 3 3 3 3 3 3 3 3 3 3 3 3 3 3 3 3 3 3 3 3 3 3 3 3 3 3 3 3 3 3 3 3 3 3 3 3 3 3 3 3 3 3 3 3 3 3 3 3 3 3 3 3 3 3 3 3 3 3 3 3 3 3 3 3 3 3 3 3 3 3 3 3 3 3 3 3 3 3 3 3 3 3 3 3 3 3 3 3 3 3 3 3 3 3 3 3 3 3 3 3 3 3 3 3 3 3 3 3 3 3 3 3 3 3 3 3 3 3 3 3 3 3 3 3 3 3 3 3 3 3 3 3 3 3 3 3 3 3 3 3 3 3 3 3 3 3 3 3 3 3 3 3 3 3 3 3 3 3 3 3 3 3 3 3 3 3 3 3 3 3 3 3 3 3 3 3 3 3 3 3 3 3 3 3 3 3 3 3 3 3 3 3 3 3 3 3 3 3 3 3 3 3 3 3 3 3 3 3 3 3 3 3 3 3 3 3 3 3 3 3 3 3 3 3 3 3 3 3 3 3 3 3 3 3 3 3 3 3 3 3 3 3 3 3 3 3 3 3 3 3 3 3 3 3 3 3 3 3 3 3 3 3 3 3 3 3 3 3 3 3 3 3 3 3 3 3 3 3 3 3 3 3 3 3 3 3 3 3 3 3 3 3 3 3 3 3 3 3 3 3 3 3 3 3 3 3 3 3 3 3 3 3 3 3 3 3 3 3 3 3 3 3 3 3 3 3 3 3 3 3 3 3 3 3 3 3 3 3 3 3 3 3 3 3 3 3 3 3 3 3 3 3 3 3 3 3 3 3 3 3 3 3 3 3 3 3 3 3 3 3 3 3 3 3 3 3 3 3 3 3 3 3 3 3 3 3 3 3 3 3 3 3 3 3 3 3 3 3 3 3 3 3 3 3 3 3 3 3 3 3 3 3 3 3 3 3 3 3 3 3 3 3 3 3 3 3 3 3 3 3 3 3 3 3 3 3 3 3 3 3 3 3 3 3 3 3 3 3 3 3 3 3 3 3 3 3 3 3 3 3 3 3 3 3 3 3 3 3 3 3 3 3 3 3 3 3 3 3 3 3 3 3 3 3 3 3 3 3 3 3 3 3 3 3 3 3 3 3 3 3 3 3 3 3 3 3 3 3 3 3 3 3 3 3 3 3 3 3 3 3 3 3 3 3 3 3 3 3 3 3 3 3 3 3 3 3 3 3 3 3 3 3 3 3 3 3 3 3 3 3 3 3 3 3 3 3 3 3 3 3 3 3 3 3 3 3 3 3 3 3 3 3 3 3 3 3 3 3 3 3 3 3 3 3 3 3 3 3 3 3 3 </vcount>
          <p>0 0 5 0 6 0 111 1 116 1 214 1 7 2 8 2 3 2 84 3 299 3 340 3 0 4 4 4 9 4 5 5 10 5 11 5 6 6 11 6 12 6 12 7 13 7 8 7 13 8 14 8 9 8 14 9 10 9 5 9 15 10 16 10 11 10 12 11 11 11 228 11 17 12 18 12 13 12 78 13 79 13 320 13 14 14 19 14 15 14 20 15 21 15 16 15 16 16 21 16 22 16 22 17 23 17 18 17 23 18 24 18 19 18 19 19 24 19 20 19 20 20 25 20 26 20 97 21 272 21 268 21 27 22 28 22 23 22 33 23 38 23 292 23 29 24 25 24 20 24 25 25 30 25 31 25 26 26 31 26 32 26 32 27 33 27 28 27 33 28 34 28 29 28 34 29 30 29 25 29 30 30 35 30 36 30 177 31 259 31 269 31 37 32 38 32 33 32 189 33 184 33 284 33 39 34 35 34 30 34 35 35 40 35 41 35 36 36 41 36 42 36 42 37 43 37 38 37 43 38 44 38 39 38 44 39 40 39 35 39 40 40 45 40 46 40 17 41 12 41 202 41 47 42 48 42 43 42 58 43 59 43 346 43 49 44 45 44 40 44 45 45 50 45 51 45 46 46 51 46 52 46 52 47 53 47 48 47 53 48 54 48 49 48 54 49 50 49 45 49 55 50 56 50 51 50 167 51 162 51 235 51 57 52 58 52 53 52 109 53 104 53 323 53 54 54 59 54 55 54 55 55 60 55 61 55 56 56 61 56 62 56 62 57 63 57 58 57 63 58 64 58 59 58 64 59 60 59 55 59 65 60 66 60 61 60 162 61 161 61 234 61 67 62 68 62 63 62 168 63 351 63 342 63 64 64 69 64 65 64 65 65 70 65 71 65 66 66 71 66 72 66 72 67 73 67 68 67 73 68 74 68 69 68 74 69 70 69 65 69 75 70 76 70 71 70 72 71 71 71 218 71 77 72 78 72 73 72 73 73 333 73 319 73 74 74 79 74 75 74 80 75 81 75 76 75 76 76 81 76 82 76 82 77 83 77 78 77 83 78 84 78 79 78 79 79 84 79 80 79 80 80 85 80 86 80 37 81 238 81 239 81 87 82 88 82 83 82 39 83 34 83 290 83 89 84 85 84 80 84 90 85 91 85 86 85 86 86 91 86 92 86 92 87 93 87 88 87 93 88 94 88 89 88 89 89 94 89 90 89 95 90 96 90 91 90 137 91 277 91 208 91 97 92 98 92 93 92 68 93 282 93 315 93 94 94 99 94 95 94 95 95 100 95 101 95 96 96 101 96 102 96 102 97 103 97 98 97 103 98 104 98 99 98 104 99 100 99 95 99 105 100 106 100 101 100 77 101 72 101 200 101 107 102 108 102 103 102 33 103 339 103 290 103 104 104 109 104 105 104 110 105 111 105 106 105 111 106 112 106 107 106 112 107 113 107 108 107 108 108 113 108 114 108 109 109 114 109 110 109 110 110 115 110 116 110 42 111 41 111 253 111 117 112 118 112 113 112 88 113 89 113 340 113 119 114 115 114 110 114 120 115 121 115 116 115 121 116 122 116 117 116 122 117 123 117 118 117 118 118 123 118 124 118 124 119 120 119 115 119 120 120 125 120 126 120 46 121 215 121 253 121 127 122 128 122 123 122 169 123 164 123 343 123 129 124 125 124 120 124 125 125 130 125 131 125 126 126 131 126 132 126 132 127 133 127 128 127 133 128 134 128 129 128 134 129 130 129 125 129 135 130 136 130 131 130 176 131 269 131 257 131 137 132 138 132 133 132 149 133 144 133 288 133 134 134 139 134 135 134 140 135 141 135 136 135 136 136 141 136 142 136 142 137 143 137 138 137 143 138 144 138 139 138 139 139 144 139 140 139 145 140 146 140 141 140 122 141 121 141 251 141 147 142 148 142 143 142 194 143 312 143 313 143 144 144 149 144 145 144 145 145 150 145 151 145 146 146 151 146 152 146 152 147 153 147 148 147 153 148 154 148 149 148 154 149 150 149 145 149 155 150 156 150 151 150 57 151 52 151 270 151 157 152 158 152 153 152 133 153 138 153 322 153 154 154 159 154 155 154 160 155 161 155 156 155 156 156 161 156 162 156 162 157 163 157 158 157 163 158 164 158 159 158 159 159 164 159 160 159 165 160 166 160 161 160 56 161 225 161 224 161 167 162 168 162 163 162 18 163 331 163 330 163 164 164 169 164 165 164 165 165 170 165 171 165 166 166 171 166 172 166 172 167 173 167 168 167 173 168 174 168 169 168 174 169 170 169 165 169 170 170 175 170 176 170 81 171 86 171 233 171 177 172 178 172 173 172 83 173 298 173 299 173 179 174 175 174 170 174 180 175 181 175 176 175 181 176 182 176 177 176 182 177 183 177 178 177 178 178 183 178 184 178 179 179 184 179 180 179 185 180 186 180 181 180 32 181 230 181 238 181 187 182 188 182 183 182 13 183 330 183 357 183 184 184 189 184 185 184 185 185 190 185 191 185 186 186 191 186 192 186 192 187 193 187 188 187 193 188 194 188 189 188 194 189 190 189 185 189 190 190 195 190 196 190 82 191 81 191 246 191 197 192 198 192 193 192 49 193 44 193 355 193 199 194 195 194 190 194 0 195 1 195 196 195 196 196 1 196 2 196 2 197 3 197 198 197 3 198 4 198 199 198 199 199 4 199 0 199 256 200 245 200 243 200 219 201 203 201 202 201 250 202 275 202 274 202 239 203 238 203 230 203 215 204 212 204 211 204 225 205 273 205 270 205 255 206 267 206 266 206 204 207 201 207 200 207 246 208 233 208 232 208 268 209 272 209 221 209 244 210 205 210 206 210 213 211 214 211 237 211 263 212 260 212 252 212 208 213 277 213 264 213 223 214 262 214 261 214 248 215 247 215 210 215 271 216 276 216 235 216 269 217 259 217 258 217 227 218 241 218 240 218 216 219 265 219 279 219 187 220 241 220 227 220 102 221 278 221 206 221 177 222 172 222 258 222 142 223 141 223 222 223 92 224 91 224 220 224 157 225 152 225 210 225 27 226 22 226 274 226 166 227 271 227 234 227 47 228 212 228 215 228 167 229 276 229 271 229 77 230 201 230 204 230 132 231 264 231 277 231 147 232 262 232 223 232 112 233 236 233 237 233 186 234 227 234 226 234 191 235 196 235 265 235 16 236 219 236 228 236 197 237 192 237 217 237 67 238 62 238 266 238 32 239 31 239 229 239 66 240 255 240 254 240 192 241 191 241 216 241 76 242 204 242 218 242 157 243 247 243 248 243 182 244 240 244 241 244 127 245 122 245 252 245 112 246 111 246 213 246 96 247 268 247 220 247 82 248 231 248 232 248 182 249 181 249 226 249 107 250 206 250 205 250 2 251 242 251 243 251 62 252 61 252 254 252 57 253 273 253 225 253 17 254 203 254 219 254 106 255 205 255 244 255 22 256 21 256 249 256 156 257 248 257 209 257 136 258 208 258 207 258 117 259 237 259 214 259 147 260 142 260 261 260 2 261 1 261 256 261 7 262 243 262 245 262 87 263 232 263 233 263 127 264 260 264 263 264 27 265 275 265 250 265 172 266 171 266 257 266 97 267 92 267 221 267 26 268 250 268 249 268 152 269 151 269 209 269 197 270 279 270 265 270 121 271 126 271 263 271 67 272 267 272 255 272 102 273 101 273 244 273 36 274 239 274 229 274 52 275 51 275 224 275 47 276 42 276 211 276 6 277 245 277 256 277 132 278 131 278 207 278 146 279 223 279 222 279 318 280 297 280 294 280 330 281 331 281 358 281 316 282 350 282 349 282 292 283 291 283 290 283 308 284 309 284 356 284 335 285 336 285 346 285 315 286 282 286 281 286 333 287 325 287 320 287 341 288 340 288 299 288 307 289 289 289 286 289 296 290 324 290 323 290 347 291 344 291 338 291 310 292 354 292 359 292 321 293 322 293 353 293 287 294 334 294 332 294 328 295 301 295 302 295 342 296 351 296 348 296 303 297 304 297 327 297 283 298 305 298 300 298 329 299 314 299 313 299 29 300 24 300 317 300 198 301 199 301 313 301 163 302 342 302 343 302 158 303 159 303 302 303 178 304 179 304 327 304 69 305 64 305 280 305 128 306 129 306 359 306 78 307 325 307 333 307 133 308 321 308 352 308 3 309 318 309 293 309 103 310 295 310 323 310 178 311 304 311 303 311 38 312 39 312 291 312 148 313 149 313 332 313 188 314 189 314 300 314 28 315 29 315 349 315 63 316 315 316 280 316 173 317 303 317 326 317 9 318 4 318 293 318 93 319 307 319 285 319 128 320 354 320 310 320 68 321 69 321 281 321 108 322 109 322 324 322 114 323 338 323 344 323 23 324 316 324 317 324 129 325 124 325 311 325 159 326 154 326 306 326 138 327 139 327 353 327 183 328 283 328 284 328 53 329 335 329 345 329 83 330 88 330 341 330 98 331 289 331 307 331 183 332 188 332 305 332 58 333 336 333 335 333 193 334 329 334 312 334 174 335 326 335 327 335 59 336 54 336 345 336 3 337 8 337 297 337 198 338 314 338 329 338 28 339 350 339 316 339 99 340 94 340 285 340 19 341 14 341 357 341 48 342 49 342 356 342 43 343 308 343 355 343 143 344 287 344 288 344 168 345 169 345 348 345 153 346 328 346 306 346 118 347 119 347 344 347 18 348 19 348 358 348 158 349 301 349 328 349 103 350 108 350 296 350 139 351 134 351 352 351 48 352 309 352 308 352 8 353 9 353 294 353 113 354 118 354 347 354 79 355 74 355 319 355 123 356 310 356 311 356 148 357 334 357 287 357 98 358 99 358 286 358 113 359 337 359 338 359 1 360 0 360 6 360 213 361 111 361 214 361 2 362 7 362 3 362 89 363 84 363 340 363 5 364 0 364 9 364 6 365 5 365 11 365 7 366 6 366 12 366 7 367 12 367 8 367 8 368 13 368 9 368 9 369 14 369 5 369 10 370 15 370 11 370 202 371 12 371 228 371 12 372 17 372 13 372 325 373 78 373 320 373 10 374 14 374 15 374 15 375 20 375 16 375 17 376 16 376 22 376 17 377 22 377 18 377 18 378 23 378 19 378 15 379 19 379 20 379 21 380 20 380 26 380 96 381 97 381 268 381 22 382 27 382 23 382 339 383 33 383 292 383 24 384 29 384 20 384 26 385 25 385 31 385 27 386 26 386 32 386 27 387 32 387 28 387 28 388 33 388 29 388 29 389 34 389 25 389 31 390 30 390 36 390 176 391 177 391 269 391 32 392 37 392 33 392 300 393 189 393 284 393 34 394 39 394 30 394 36 395 35 395 41 395 37 396 36 396 42 396 37 397 42 397 38 397 38 398 43 398 39 398 39 399 44 399 35 399 41 400 40 400 46 400 203 401 17 401 202 401 42 402 47 402 43 402 336 403 58 403 346 403 44 404 49 404 40 404 46 405 45 405 51 405 47 406 46 406 52 406 47 407 52 407 48 407 48 408 53 408 49 408 49 409 54 409 45 409 50 410 55 410 51 410 276 411 167 411 235 411 52 412 57 412 53 412 324 413 109 413 323 413 50 414 54 414 55 414 56 415 55 415 61 415 57 416 56 416 62 416 57 417 62 417 58 417 58 418 63 418 59 418 59 419 64 419 55 419 60 420 65 420 61 420 235 421 162 421 234 421 62 422 67 422 63 422 163 423 168 423 342 423 60 424 64 424 65 424 66 425 65 425 71 425 67 426 66 426 72 426 67 427 72 427 68 427 68 428 73 428 69 428 69 429 74 429 65 429 70 430 75 430 71 430 200 431 72 431 218 431 72 432 77 432 73 432 74 433 73 433 319 433 70 434 74 434 75 434 75 435 80 435 76 435 77 436 76 436 82 436 77 437 82 437 78 437 78 438 83 438 79 438 75 439 79 439 80 439 81 440 80 440 86 440 36 441 37 441 239 441 82 442 87 442 83 442 291 443 39 443 290 443 84 444 89 444 80 444 85 445 90 445 86 445 87 446 86 446 92 446 87 447 92 447 88 447 88 448 93 448 89 448 85 449 89 449 90 449 90 450 95 450 91 450 136 451 137 451 208 451 92 452 97 452 93 452 63 453 68 453 315 453 90 454 94 454 95 454 96 455 95 455 101 455 97 456 96 456 102 456 97 457 102 457 98 457 98 458 103 458 99 458 99 459 104 459 95 459 100 460 105 460 101 460 201 461 77 461 200 461 102 462 107 462 103 462 34 463 33 463 290 463 100 464 104 464 105 464 105 465 110 465 106 465 106 466 111 466 107 466 107 467 112 467 108 467 109 468 108 468 114 468 105 469 109 469 110 469 111 470 110 470 116 470 211 471 42 471 253 471 112 472 117 472 113 472 341 473 88 473 340 473 114 474 119 474 110 474 115 475 120 475 116 475 116 476 121 476 117 476 117 477 122 477 118 477 119 478 118 478 124 478 119 479 124 479 115 479 121 480 120 480 126 480 41 481 46 481 253 481 122 482 127 482 123 482 348 483 169 483 343 483 124 484 129 484 120 484 126 485 125 485 131 485 127 486 126 486 132 486 127 487 132 487 128 487 128 488 133 488 129 488 129 489 134 489 125 489 130 490 135 490 131 490 171 491 176 491 257 491 132 492 137 492 133 492 332 493 149 493 288 493 130 494 134 494 135 494 135 495 140 495 136 495 137 496 136 496 142 496 137 497 142 497 138 497 138 498 143 498 139 498 135 499 139 499 140 499 140 500 145 500 141 500 252 501 122 501 251 501 142 502 147 502 143 502 199 503 194 503 313 503 140 504 144 504 145 504 146 505 145 505 151 505 147 506 146 506 152 506 147 507 152 507 148 507 148 508 153 508 149 508 149 509 154 509 145 509 150 510 155 510 151 510 273 511 57 511 270 511 152 512 157 512 153 512 321 513 133 513 322 513 150 514 154 514 155 514 155 515 160 515 156 515 157 516 156 516 162 516 157 517 162 517 158 517 158 518 163 518 159 518 155 519 159 519 160 519 160 520 165 520 161 520 51 521 56 521 224 521 162 522 167 522 163 522 13 523 18 523 330 523 160 524 164 524 165 524 166 525 165 525 171 525 167 526 166 526 172 526 167 527 172 527 168 527 168 528 173 528 169 528 169 529 174 529 165 529 171 530 170 530 176 530 246 531 81 531 233 531 172 532 177 532 173 532 84 533 83 533 299 533 174 534 179 534 170 534 175 535 180 535 176 535 176 536 181 536 177 536 177 537 182 537 178 537 179 538 178 538 184 538 175 539 179 539 180 539 180 540 185 540 181 540 37 541 32 541 238 541 182 542 187 542 183 542 14 543 13 543 357 543 180 544 184 544 185 544 186 545 185 545 191 545 187 546 186 546 192 546 187 547 192 547 188 547 188 548 193 548 189 548 189 549 194 549 185 549 191 550 190 550 196 550 231 551 82 551 246 551 192 552 197 552 193 552 356 553 49 553 355 553 194 554 199 554 190 554 195 555 0 555 196 555 197 556 196 556 2 556 197 557 2 557 198 557 198 558 3 558 199 558 195 559 199 559 0 559 242 560 256 560 243 560 228 561 219 561 202 561 249 562 250 562 274 562 229 563 239 563 230 563 253 564 215 564 211 564 224 565 225 565 270 565 254 566 255 566 266 566 218 567 204 567 200 567 231 568 246 568 232 568 220 569 268 569 221 569 278 570 244 570 206 570 236 571 213 571 237 571 251 572 263 572 252 572 207 573 208 573 264 573 222 574 223 574 261 574 209 575 248 575 210 575 234 576 271 576 235 576 257 577 269 577 258 577 226 578 227 578 240 578 217 579 216 579 279 579 186 580 187 580 227 580 107 581 102 581 206 581 259 582 177 582 258 582 261 583 142 583 222 583 221 584 92 584 220 584 247 585 157 585 210 585 275 586 27 586 274 586 161 587 166 587 234 587 46 588 47 588 215 588 166 589 167 589 271 589 76 590 77 590 204 590 137 591 132 591 277 591 146 592 147 592 223 592 117 593 112 593 237 593 181 594 186 594 226 594 216 595 191 595 265 595 11 596 16 596 228 596 279 597 197 597 217 597 267 598 67 598 266 598 230 599 32 599 229 599 61 600 66 600 254 600 217 601 192 601 216 601 71 602 76 602 218 602 156 603 157 603 248 603 187 604 182 604 241 604 260 605 127 605 252 605 236 606 112 606 213 606 91 607 96 607 220 607 87 608 82 608 232 608 240 609 182 609 226 609 106 610 107 610 205 610 7 611 2 611 243 611 266 612 62 612 254 612 56 613 57 613 225 613 16 614 17 614 219 614 101 615 106 615 244 615 274 616 22 616 249 616 151 617 156 617 209 617 131 618 136 618 207 618 116 619 117 619 214 619 262 620 147 620 261 620 242 621 2 621 256 621 6 622 7 622 245 622 86 623 87 623 233 623 126 624 127 624 263 624 26 625 27 625 250 625 258 626 172 626 257 626 272 627 97 627 221 627 21 628 26 628 249 628 210 629 152 629 209 629 196 630 197 630 265 630 251 631 121 631 263 631 66 632 67 632 255 632 278 633 102 633 244 633 31 634 36 634 229 634 270 635 52 635 224 635 212 636 47 636 211 636 1 637 6 637 256 637 264 638 132 638 207 638 141 639 146 639 222 639 293 640 318 640 294 640 357 641 330 641 358 641 317 642 316 642 349 642 339 643 292 643 290 643 355 644 308 644 356 644 345 645 335 645 346 645 280 646 315 646 281 646 319 647 333 647 320 647 298 648 341 648 299 648 285 649 307 649 286 649 295 650 296 650 323 650 337 651 347 651 338 651 311 652 310 652 359 652 352 653 321 653 353 653 288 654 287 654 332 654 306 655 328 655 302 655 343 656 342 656 348 656 326 657 303 657 327 657 284 658 283 658 300 658 312 659 329 659 313 659 349 660 29 660 317 660 314 661 198 661 313 661 164 662 163 662 343 662 301 663 158 663 302 663 304 664 178 664 327 664 281 665 69 665 280 665 354 666 128 666 359 666 73 667 78 667 333 667 134 668 133 668 352 668 4 669 3 669 293 669 104 670 103 670 323 670 173 671 178 671 303 671 292 672 38 672 291 672 334 673 148 673 332 673 305 674 188 674 300 674 350 675 28 675 349 675 64 676 63 676 280 676 174 677 173 677 326 677 294 678 9 678 293 678 94 679 93 679 285 679 123 680 128 680 310 680 282 681 68 681 281 681 296 682 108 682 324 682 119 683 114 683 344 683 24 684 23 684 317 684 359 685 129 685 311 685 302 686 159 686 306 686 322 687 138 687 353 687 184 688 183 688 284 688 54 689 53 689 345 689 298 690 83 690 341 690 93 691 98 691 307 691 283 692 183 692 305 692 53 693 58 693 335 693 194 694 193 694 312 694 179 695 174 695 327 695 346 696 59 696 345 696 318 697 3 697 297 697 193 698 198 698 329 698 23 699 28 699 316 699 286 700 99 700 285 700 358 701 19 701 357 701 309 702 48 702 356 702 44 703 43 703 355 703 144 704 143 704 288 704 351 705 168 705 348 705 154 706 153 706 306 706 347 707 118 707 344 707 331 708 18 708 358 708 153 709 158 709 328 709 295 710 103 710 296 710 353 711 139 711 352 711 43 712 48 712 308 712 297 713 8 713 294 713 337 714 113 714 347 714 320 715 79 715 319 715 124 716 123 716 311 716 143 717 148 717 287 717 289 718 98 718 286 718 114 719 113 719 338 719</p>
        </polylist>
      </mesh>
    </geometry>
  </library_geometries>
  <library_controllers/>
  <library_visual_scenes>
    <visual_scene id="Scene" name="Scene">
      <node id="Torus" name="Torus" type="NODE">
        <matrix sid="transform">4.968968 0 0 0.005260848 0 4.968968 0 -3.90485e-4 0 0 4.968968 7.381209 0 0 0 1</matrix>
        <instance_geometry url="#Torus-mesh"/>
      </node>
    </visual_scene>
  </library_visual_scenes>
  <scene>
    <instance_visual_scene url="#Scene"/>
  </scene>
</COLLADA>